module gitea.com/abramsz/beats

go 1.14

require (
	github.com/go-sql-driver/mysql v1.5.0
	github.com/google/wire v0.4.0
	github.com/gorilla/handlers v1.4.2
	github.com/gorilla/mux v1.7.4
	github.com/niemeyer/pretty v0.0.0-20200227124842-a10e7caefd8e // indirect
	github.com/pkg/errors v0.8.1
	github.com/rs/zerolog v1.18.0
	github.com/stretchr/testify v1.5.1
	golang.org/x/sync v0.0.0-20200317015054-43a5402ce75a
	gopkg.in/check.v1 v1.0.0-20200227125254-8fa46927fb4f // indirect
	gopkg.in/yaml.v2 v2.2.8
)
